{
    "content": [
      {
        "address": "0x57956585e6595965e92a297119e7f6fe3b76ce62297ba61cabe91751ea32c3d2",
        "firstSeen": 1760459677835,
        "lastSeen": 1760459677835,
        "events": 0,
        "blobs": 0,
        "balance": 55572371.863372706
      },
      {
        "address": "0x92b0683e1010fcf51e3a6d3531f01d083736a032569a65d68ff5972325f3103b",
        "firstSeen": 1742576724433,
        "lastSeen": 1742576724433,
        "events": 0,
        "blobs": 1,
        "balance": 31689950
      },
      {
        "address": "0xf2182a9bcb02441acff907352ffe7b9ca8b9034b025de472e23789357c5863a9",
        "firstSeen": 1760020864527,
        "lastSeen": 1760020864527,
        "events": 0,
        "blobs": 0,
        "balance": 17846705.806796137
      },
      {
        "address": "0x6dd3c302791c85e05997ca08de280ffdb7f59b511ebfaa8702d17e33a4f7eb59",
        "firstSeen": 1752011678126,
        "lastSeen": 1752011678126,
        "events": 0,
        "blobs": 0,
        "balance": 120004.714495037
      },
      {
        "address": "0xb172749f30dc08a2e200d79f33c7ff1bc621f6ca3228eb6070447fdb7d0a4b60",
        "firstSeen": 1762288572669,
        "lastSeen": 1762288572669,
        "events": 0,
        "blobs": 0,
        "balance": 100425.184781801
      },
      {
        "address": "0xc664a1a6d7602239beb5f210eee21dc509f92e425e504b6de48f494215797d27",
        "firstSeen": 1755830442578,
        "lastSeen": 1755830442578,
        "events": 0,
        "blobs": 0,
        "balance": 99277.169226612
      },
      {
        "address": "0x05a758c1c3dc0ff14db527d3d8adce6c0a3b8aa6ec16100dfd4a63952bc5326a",
        "firstSeen": 1759739782357,
        "lastSeen": 1759739782357,
        "events": 0,
        "blobs": 0,
        "balance": 93846.341855
      },
      {
        "address": "0xa1cbbcc4fc6f4ca0e46c386efb4dfbba9f2ba9035ec5c53eca5b74ff50dd1395",
        "firstSeen": 1755829410849,
        "lastSeen": 1755829410849,
        "events": 0,
        "blobs": 0,
        "balance": 79447.071233576
      },
      {
        "address": "0x74ded13833e4a862be274a8c11ecd086b40193de9cac2ef1d7d4df3d9521ddfc",
        "firstSeen": 1760082972704,
        "lastSeen": 1760082972704,
        "events": 0,
        "blobs": 0,
        "balance": 65890.507098363
      },
      {
        "address": "0x2e8d0881dcd742f7bcc28094d2ef7a54e5abe1c3c517872a86fd9e0ad5c4c6cd",
        "firstSeen": 1755829210347,
        "lastSeen": 1755829210347,
        "events": 0,
        "blobs": 0,
        "balance": 61009.849028789
      },
      {
        "address": "0x543f105877571262ebade9ffc039bbf55347196d24a664fd2aaff708369d01b7",
        "firstSeen": 1755130095831,
        "lastSeen": 1755130095831,
        "events": 0,
        "blobs": 0,
        "balance": 56534.269203663
      },
      {
        "address": "0xbb24026850bf964da2493eb7c4488846ee6f23632b6b20534a2a8d8e3d80e52d",
        "firstSeen": 1750963332554,
        "lastSeen": 1750963332554,
        "events": 0,
        "blobs": 0,
        "balance": 51933.512327649
      },
      {
        "address": "0xae0a3900414823630cd627e973b4c21a4457e1ba1624892a174ef12f9b6a2f7a",
        "firstSeen": 1743077994946,
        "lastSeen": 1743077994946,
        "events": 0,
        "blobs": 1,
        "balance": 50000.189706976
      },
      {
        "address": "0x0d9470860be945af13d514db6b8ab74e51182e860fe2ef4b039f2aca4059f54b",
        "firstSeen": 1756165927093,
        "lastSeen": 1756165927093,
        "events": 0,
        "blobs": 0,
        "balance": 48807.338660208
      },
      {
        "address": "0x1e4d92174259537aa6a909318144aadd35ab444d4179483b737d840729272ca3",
        "firstSeen": 1761478260987,
        "lastSeen": 1761478260987,
        "events": 0,
        "blobs": 0,
        "balance": 45973.284137425
      },
      {
        "address": "0x160c7421094dcaa1d114cf428ff511025e22f4b16fb145bb940ae6cbf144842a",
        "firstSeen": 1756090591303,
        "lastSeen": 1762566510351,
        "events": 2,
        "blobs": 1,
        "balance": 40006.178353903
      },
      {
        "address": "0x56c9a128e9eb14f15f9a7f690ef47980c39fdaf4745163ce3fc38f86d068b856",
        "firstSeen": 1747343631301,
        "lastSeen": 1747343631301,
        "events": 0,
        "blobs": 1,
        "balance": 35986.998269845
      },
      {
        "address": "0x6013cc8536df32c8fc932d0032de6ba055029c3418dd1d2cd139da859714153a",
        "firstSeen": 1755873443043,
        "lastSeen": 1755873443043,
        "events": 0,
        "blobs": 0,
        "balance": 32967.140373181
      },
      {
        "address": "0x6208494b593d1165aad9da926d2d66e4a33746949c7b10be5b7abc6f5eb558fe",
        "firstSeen": 1752463337847,
        "lastSeen": 1752463337847,
        "events": 0,
        "blobs": 0,
        "balance": 31916.624791353
      },
      {
        "address": "0x24b20f361950d032f215c085545cadaeb0b50031511ee0ae245b8b2033d575b2",
        "firstSeen": 1752255010445,
        "lastSeen": 1752255010445,
        "events": 0,
        "blobs": 0,
        "balance": 29790.10486281
      }
    ],
    "pageable": {
      "sort": {
        "sorted": true,
        "empty": false,
        "unsorted": false
      },
      "pageNumber": 0,
      "pageSize": 20,
      "offset": 0,
      "paged": true,
      "unpaged": false
    },
    "totalPages": 12598,
    "totalElements": 251952,
    "last": false,
    "size": 20,
    "number": 0,
    "sort": {
      "sorted": true,
      "empty": false,
      "unsorted": false
    },
    "numberOfElements": 20,
    "first": true,
    "empty": false
  }